{
  "sections": [
    {
      "text": "Master Data",
      "xtype": "style",
      "columns": [
        {
          "text": "Class",
          "dataIndex": "attribute:ccclassname:id"
        },
        {
          "text": "SubClass",
          "dataIndex": "attribute:ccsubclassname:id"
        },
        {
          "text": "Powerdriver",
          "dataIndex": "member:powerdriver:name"
        },
        {
          "text": "Spec Style",
          "dataIndex": "attribute:ccspecstylestyle:id"
        }
      ]
    },
    {
      "text": "Style Attributes",
      "xtype": "style",
      "columns": [
        {
          "text": "Development Path",
          "dataIndex": "attribute:ccdevelopmentpath:name"
        },
        {
          "text": "Dresses",
          "dataIndex": "attribute:ccdresses:name"
        },
        {
          "text": "Fabric",
          "dataIndex": "attribute:ccfabric:name"
        },
        {
          "text": "Fashion Tier",
          "dataIndex": "attribute:ccfashiontier:name"
        },
        {
          "text": "Fit",
          "dataIndex": "attribute:ccfit:name"
        },
        {
          "text": "Graphic Theme",
          "dataIndex": "attribute:ccgraphictheme:name"
        },
        {
          "text": "Leg Shape",
          "dataIndex": "attribute:cclegshape:name"
        },
        {
          "text": "Lifestyle",
          "dataIndex": "attribute:cclifestyle:name"
        },
        {
          "text": "Neckline",
          "dataIndex": "attribute:ccneckline:name"
        },
        {
          "text": "Product Detail",
          "dataIndex": "attribute:ccproductdetail:name"
        },
        {
          "text": "Rise",
          "dataIndex": "attribute:ccrise:name"
        },
        {
          "text": "Silhouette",
          "dataIndex": "attribute:ccsilhouette:name"
        },
        {
          "text": "Skirt-Leg Length",
          "dataIndex": "attribute:cclegskirtdresslength:name"
        },
        {
          "text": "Sleeve Length",
          "dataIndex": "attribute:ccsleevelength:name"
        },
        {
          "text": "Style Group",
          "dataIndex": "attribute:ccstylegroup:name"
        },
        {
          "text": "Suits",
          "dataIndex": "attribute:ccsuits:name"
        },
        {
          "text": "Tested",
          "dataIndex": "attribute:cctested:name"
        }
      ]
    }
  ]
}
