[
  {
    "id": "007737664",
    "name": "RUFFLE MINI SKIRT",
    "description": "RUFFLE MINI SKIRT"
  },
  {
    "id": "007737664",
    "name": "RUFFLE CHIANTI SKIRT",
    "description": "RUFFLE CHIANTI SKIRT"
  },
  {
    "id": "007737664",
    "name": "RUFFLE MINI NEW SKIRT",
    "description": "RUFFLE MINI NEW SKIRT"
  }
]